Chapter 5 Election data in R | R cookbook for the casual dabbler
…
5.6 Winners and losers at each booth

Election results are provided at the resolution of polling place, but must be downloaded using the functions firstpref_pollingbooth_download, twoparty_pollingbooth_download or twocand_pollingbooth_download (depending on the vote type). We can use this information to color the points. The two files need to be merged. Both have a unique ID for the polling place that can be used to match the records. The two party preferred vote, a measure of preference between only the Australian Labor Party (ALP) and the Liberal/National Coalition (LNP), is downloaded using twoparty_pollingbooth_download. The preferred party is the one with the higher percentage, and we use this to colour the points indicating polling places.

This gives a richer look at the party preferences across the country. You can see that although the big rural electorates vote for LNP overall, some polling places would elect the ALP, e.g. western NSW around Broken Hill. This data would look far more interesting if the data also contained the minority parties, because there must be some polling places where the majority vote would be for a minor party, since there are some minor party representatives in the House.

## Error: `map` must have the columns `x`, `y`, and `id`

The two candidate preferred vote (downloaded with twocand_pollingbooth_download) is a measure of preference between the two candidates who received the most votes through the division of preferences, where the winner has the higher percentage.

## Error: `map` must have the columns `x`, `y`, and `id`

tcp_pp_winners

## # A tibble: 8,157 × 20
##    StateAb DivisionID DivisionNm PollingPlaceID PollingPlace CandidateID Surname
##    <chr>        <dbl> <chr>               <dbl> <chr>              <dbl> <chr>  
##  1 ACT            101 CANBERRA             8829 BARTON             28189 BRODTM…
##  2 ACT            101 CANBERRA            64583 BELCONNEN C…       28189 BRODTM…
##  3 ACT            101 CANBERRA            65504 BLV CANBERR…       28189 BRODTM…
##  4 ACT            101 CANBERRA            11877 BONYTHON           28189 BRODTM…
##  5 ACT            101 CANBERRA             8802 BRADDON (CA…       28189 BRODTM…
##  6 ACT            101 CANBERRA            11452 CALWELL            28189 BRODTM…
##  7 ACT            101 CANBERRA             8806 CAMPBELL           28189 BRODTM…
##  8 ACT            101 CANBERRA             8761 CHAPMAN            28189 BRODTM…
##  9 ACT            101 CANBERRA             8763 CHISHOLM           28189 BRODTM…
## 10 ACT            101 CANBERRA             8808 CITY (CANBE…       28189 BRODTM…
## # … with 8,147 more rows, and 13 more variables: GivenNm <chr>,
## #   BallotPosition <dbl>, PartyAb <chr>, PartyNm <chr>, OrdinaryVotes <dbl>,
## #   Swing <dbl>, Elected <chr>, PremisesPostCode <dbl>, Latitude <dbl>,
## #   Longitude <dbl>, year <dbl>, HistoricElected <chr>, TotalVotes <dbl>
…
